Easter 2025 – LDS Hymn Stats
…
Last year, I posted about general trends with hymns around Easter. Now that we have a couple new Easter hymns, I thought it’d be good to take a look at this year’s data and see how it compares. This post is based primarily on data from 866 wards. You can read more about the full dataset here.

In my previous post, I went into detail trying to figure out which hymns are considered “Easter” hymns. I included hymns that were listed in the table of contents under “Easter” or listed in the index under “Easter”, “Resurrection”, or “Sacrament.” I’ll use the same list, but I’ll add the new hymns that fit that criteria. This includes three Easter hymns (Hail the Day that Sees Him Rise (#1201), Let Easter Anthems Ring (#1205), and Were You There? (#1206)) and six sacrament hymns (It Is Well with My Soul (#1003), As Bread is Broken (#1007), Bread of Life, Living Water (#1008), Gethsemane (#1009), Behold the Wounds in Jesus’ Hands (#1016), and This Is the Christ (#1017)).

The Easter Season

Again, like I said in my previous post, since many of these sacrament hymns are commonly sung outside of the Easter season, we can’t assume that if a ward sings, say, As Bread is Broken (#1007), that they’re doing so in celebration of Easter. I found that around 20%–25% of wards sing at least one of those “Easter” hymns, so I decided that the Easter season was defined as the period around Easter when more than 25% of wards sing from that set.

Since some of these new hymns are generally pretty common, I’ll have to recalculate those numbers based on 2025 data. (See details below if you’d like.)

Technical details

First, here is a plot showing the proportion of sacrament meetings in my dataset that have at least one “Easter” hymn across the year. Here, I’ll just focus on sacrament meetings since June 2, 2024 when the first batch of new hymns came out.

# A tibble: 52 × 4
   date       `FALSE` `TRUE` prop_easter
   <date>       <int>  <int>       <dbl>
 1 2024-06-02     181     68       0.273
 2 2024-06-09     139     62       0.308
 3 2024-06-16     180     67       0.271
 4 2024-06-23     144     64       0.308
 5 2024-06-30     186     55       0.228
 6 2024-07-07     130     62       0.323
 7 2024-07-14     130     64       0.330
 8 2024-07-21     164     68       0.293
 9 2024-07-28     226     99       0.305
10 2024-08-04     159     88       0.356
# ℹ 42 more rows
…
